TFM Gentrificación en los barrios de Madrid
…
ruta_fichero_mapa_barrios  <- "../mapa/Barrios/barrios_indicadores_total_y_variacion.shp"
st_write(df_mapa_barrios, ruta_fichero_mapa_barrios, append=FALSE)

## Deleting layer `barrios_indicadores_total_y_variacion' using driver `ESRI Shapefile'
## Writing layer `barrios_indicadores_total_y_variacion' to data source 
##   `../mapa/Barrios/barrios_indicadores_total_y_variacion.shp' using driver `ESRI Shapefile'
## Writing 3930 features with 17 fields and geometry type Polygon.

df_cuenta <- df_nacionalidad_extranjera[df_nacionalidad_extranjera$año==2023, c(2,3)]
df_cuenta %>%
  group_by(cod_distrito ) %>%
  summarise(barrios_por_distrito = n())  %>%
arrange(desc(barrios_por_distrito))

## # A tibble: 21 × 2
##    cod_distrito barrios_por_distrito
##           <int>                <int>
##  1           15                    9
##  2            8                    8
##  3           20                    8
##  4            2                    7
##  5            9                    7
##  6           10                    7
##  7           11                    7
##  8           12                    7
##  9            1                    6
## 10            3                    6
## # ℹ 11 more rows
…
